<?xml version="1.0" encoding="UTF-8"?>
<svg id="uuid-ea1d299c-3dd2-4d89-a9e9-47ac4b6195eb" data-name="Layer 1" xmlns="http://www.w3.org/2000/svg" viewBox="0 0 77.49 69">
  <g>
    <rect x="67.43" y="24.02" width="0" height=".05" fill="#70ffe9" stroke-width="0"/>
    <rect x="23.72" y="14.49" width="8.37" height="37.93" transform="translate(23.65 -9.9) rotate(34.22)" fill="#6a6f7b" stroke-width="0"/>
    <rect x="38.89" y="13.43" width="7.26" height="22.86" transform="translate(86.98 3.68) rotate(124.22)" fill="#6a6f7b" stroke-width="0"/>
    <rect x="50.01" y="11.81" width="6.96" height="22.12" transform="translate(84.85 71.86) rotate(-145.78)" fill="#6a6f7b" stroke-width="0"/>
    <polygon points="65.07 5.92 65.84 14.03 66.73 22.15 58.05 16.15 49.33 10.21 57.23 8.12 65.07 5.92" fill="#6a6f7b" stroke-width="0"/>
    <rect x="46.56" y="7.43" width="4.75" height="10.66" transform="translate(10.59 45.74) rotate(-55.32)" fill="#70ffe9" stroke-width="0"/>
    <rect x="21.44" y="6.46" width="4.75" height="42.68" transform="translate(19.76 -8.58) rotate(34.22)" fill="#70ffe9" stroke-width="0"/>
    <rect x="38.83" y="6.56" width="4.75" height="20.29" transform="translate(78.2 -7.98) rotate(124.22)" fill="#70ffe9" stroke-width="0"/>
    <rect x="48.12" y="12.02" width="4.75" height="9.65" transform="translate(18.22 -25.49) rotate(34.22)" fill="#70ffe9" stroke-width="0"/>
    <polygon points="69.27 0 42.04 7.23 43.26 11.82 65.08 6.03 69.27 0" fill="#70ffe9" stroke-width="0"/>
    <polygon points="69.27 0 65.08 6.03 67.2 28.3 71.93 27.84 69.27 0" fill="#ffba00" stroke-width="0"/>
    <rect x="61.74" y="17.86" width="4.78" height="10.79" transform="translate(8.51 62.76) rotate(-55.32)" fill="#ffba00" stroke-width="0"/>
    <rect x="53.67" y="17.38" width="4.75" height="24.28" transform="translate(26.31 -26.41) rotate(34.22)" fill="#ffba00" stroke-width="0"/>
    <rect x="41.49" y="22.58" width="4.75" height="20.92" transform="translate(-8.12 50.73) rotate(-55.78)" fill="#ffba00" stroke-width="0"/>
    <rect x="27.52" y="23.88" width="4.75" height="30.67" transform="translate(27.23 -10.02) rotate(34.22)" fill="#ffba00" stroke-width="0"/>
  </g>
  <text transform="translate(0 68.96)" fill="#000" font-family="BerlinSansFB-Reg, &apos;Berlin Sans FB&apos;" font-size="18"><tspan x="0" y="0">TrendPilot</tspan></text>
</svg>